JQuants.jl · JQuants.jl
…
julia> getdailyquotes(code="86970")
1390×14 DataFrame
  Row │ AdjustmentClose  AdjustmentFactor  AdjustmentHigh  AdjustmentLow  AdjustmentOpen  AdjustmentVolume  Close   Code    Date      High    Low     Open    TurnoverValue  Volume
      │ Union…           Float64           Union…          Union…         Union…          Union…            Union…  String  String    Union…  Union…  Union…  Union…         Union…
──────┼───────────────────────────────────────────────────────────────────────────────────────────────────────────────────────────────────────────────────────────────────────────────
    1 │ 1706.0                        1.0  1713.0          1681.0         1690.0          1.999e6           1706.0  86970   20170104  1713.0  1681.0  1690.0  3.40143e9      1.999e6
    2 │ 1712.0                        1.0  1716.0          1696.0         1703.0          2.1371e6          1712.0  86970   20170105  1716.0  1696.0  1703.0  3.65372e9      2.1371e6
    3 │ 1691.0                        1.0  1698.0          1688.0         1694.0          1.6784e6          1691.0  86970   20170106  1698.0  1688.0  1694.0  2.84135e9      1.6784e6
    4 │ 1664.0                        1.0  1688.0          1662.0         1682.0          1.8836e6          1664.0  86970   20170110  1688.0  1662.0  1682.0  3.14754e9      1.8836e6
    5 │ 1687.0                        1.0  1702.0          1682.0         1700.0          1.7861e6          1687.0  86970   20170111  1702.0  1682.0  1700.0  3.01924e9      1.7861e6
    6 │ 1682.0                        1.0  1693.0          1671.0         1685.0          1.9381e6          1682.0  86970   20170112  1693.0  1671.0  1685.0  3.26701e9      1.9381e6
    7 │ 1692.0                        1.0  1704.0          1673.0         1683.0          1.6462e6          1692.0  86970   20170113  1704.0  1673.0  1683.0  2.77886e9      1.6462e6
    8 │ 1673.0                        1.0  1690.0          1668.0         1684.0          941900.0          1673.0  86970   20170116  1690.0  1668.0  1684.0  1.57804e9      941900.0
    9 │ 1642.0                        1.0  1675.0          1641.0         1675.0          1.2122e6          1642.0  86970   20170117  1675.0  1641.0  1675.0  1.99925e9      1.2122e6
   10 │ 1661.0                        1.0  1664.0          1636.0         1645.0          1.3235e6          1661.0  86970   20170118  1664.0  1636.0  1645.0  2.18785e9      1.3235e6
   11 │ 1659.0                        1.0  1684.0          1653.0         1679.0          1.3038e6          1659.0  86970   20170119  1684.0  1653.0  1679.0  2.16927e9      1.3038e6
   12 │ 1632.0                        1.0  1650.0          1624.0         1650.0          2.2629e6          1632.0  86970   20170120  1650.0  1624.0  1650.0  3.6977e9       2.2629e6
   13 │ 1586.0                        1.0  1608.0          1585.0         1599.0          2.6611e6          1586.0  86970   20170123  1608.0  1585.0  1599.0  4.23923e9      2.6611e6
   14 │ 1570.0                        1.0  1579.0          1555.0         1563.0          2.0087e6          1570.0  86970   20170124  1579.0  1555.0  1563.0  3.15693e9      2.0087e6
   15 │ 1560.0                        1.0  1610.0          1549.0         1596.0          3.1307e6          1560.0  86970   20170125  1610.0  1549.0  1596.0  4.89873e9      3.1307e6
   16 │ 1580.0                        1.0  1592.0          1570.0         1585.0          1.4269e6          1580.0  86970   20170126  1592.0  1570.0  1585.0  2.25742e9      1.4269e6
   17 │ 1580.0                        1.0  1595.0          1576.0         1587.0          1.3322e6          1580.0  86970   20170127  1595.0  1576.0  1587.0  2.10922e9      1.3322e6
   18 │ 1653.0                        1.0  1674.0          1575.0         1580.0          3.5799e6          1653.0  86970   20170130  1674.0  1575.0  1580.0  5.87341e9      3.5799e6
   19 │ 1685.0                        1.0  1735.0          1674.0         1675.0          3.8894e6          1685.0  86970   20170131  1735.0  1674.0  1675.0  6.61842e9      3.8894e6
   20 │ 1667.0                        1.0  1675.0          1648.0         1669.0          1.7512e6          1667.0  86970   20170201  1675.0  1648.0  1669.0  2.91227e9      1.7512e6
   21 │ 1614.0                        1.0  1674.0          1610.0         1669.0          1.8843e6          1614.0  86970   20170202  1674.0  1610.0  1669.0  3.0631e9       1.8843e6
   22 │ 1622.0                        1.0  1653.0          1621.0         1622.0          2.4143e6          1622.0  86970   20170203  1653.0  1621.0  1622.0  3.94023e9      2.4143e6
  ⋮   │        ⋮                ⋮                ⋮               ⋮              ⋮                ⋮            ⋮       ⋮        ⋮        ⋮       ⋮       ⋮           ⋮           ⋮
 1370 │ 2172.0                        1.0  2209.0          2162.5         2208.5          1.6495e6          2172.0  86970   20220812  2209.0  2162.5  2208.5  3.60256e9      1.6495e6
 1371 │ 2191.5                        1.0  2193.5          2164.0         2173.0          645700.0          2191.5  86970   20220815  2193.5  2164.0  2173.0  1.41011e9      645700.0
 1372 │ 2182.0                        1.0  2200.5          2178.0         2197.0          684500.0          2182.0  86970   20220816  2200.5  2178.0  2197.0  1.49572e9      684500.0
 1373 │ 2223.5                        1.0  2226.5          2195.0         2198.0          994900.0          2223.5  86970   20220817  2226.5  2195.0  2198.0  2.20712e9      994900.0
 1374 │ 2200.0                        1.0  2224.5          2191.5         2220.5          816400.0          2200.0  86970   20220818  2224.5  2191.5  2220.5  1.79884e9      816400.0
 1375 │ 2171.5                        1.0  2206.5          2169.0         2206.0          828800.0          2171.5  86970   20220819  2206.5  2169.0  2206.0  1.80549e9      828800.0
 1376 │ 2161.5                        1.0  2165.5          2146.0         2154.0          577800.0          2161.5  86970   20220822  2165.5  2146.0  2154.0  1.24705e9      577800.0
 1377 │ 2146.0                        1.0  2155.5          2125.5         2142.5          725600.0          2146.0  86970   20220823  2155.5  2125.5  2142.5  1.5559e9       725600.0
 1378 │ 2144.0                        1.0  2150.0          2134.0         2149.0          620500.0          2144.0  86970   20220824  2150.0  2134.0  2149.0  1.33003e9      620500.0
 1379 │ 2170.0                        1.0  2181.0          2157.5         2167.0          797000.0          2170.0  86970   20220825  2181.0  2157.5  2167.0  1.73014e9      797000.0
 1380 │ 2163.5                        1.0  2191.0          2161.5         2189.5          536900.0          2163.5  86970   20220826  2191.0  2161.5  2189.5  1.16541e9      536900.0
 1381 │ 2072.0                        1.0  2120.0          2071.0         2118.0          1.5405e6          2072.0  86970   20220829  2120.0  2071.0  2118.0  3.21194e9      1.5405e6
 1382 │ 2107.5                        1.0  2115.0          2084.0         2092.5          914000.0          2107.5  86970   20220830  2115.0  2084.0  2092.5  1.923e9        914000.0
 1383 │ 2084.5                        1.0  2095.0          2077.0         2081.5          1.1662e6          2084.5  86970   20220831  2095.0  2077.0  2081.5  2.43159e9      1.1662e6
 1384 │ 2059.0                        1.0  2064.0          2033.0         2052.0          1.1923e6          2059.0  86970   20220901  2064.0  2033.0  2052.0  2.44859e9      1.1923e6
 1385 │ 2062.5                        1.0  2071.5          2052.5         2059.0          974900.0          2062.5  86970   20220902  2071.5  2052.5  2059.0  2.00996e9      974900.0
 1386 │ 2057.5                        1.0  2062.5          2047.0         2052.5          639900.0          2057.5  86970   20220905  2062.5  2047.0  2052.5  1.31607e9      639900.0
 1387 │ 2035.0                        1.0  2060.0          2026.5         2049.5          1.0251e6          2035.0  86970   20220906  2060.0  2026.5  2049.5  2.08953e9      1.0251e6
 1388 │ 2068.5                        1.0  2075.0          2031.5         2036.0          1.2172e6          2068.5  86970   20220907  2075.0  2031.5  2036.0  2.50871e9      1.2172e6
 1389 │ 2092.0                        1.0  2097.0          2073.0         2087.0          1.4061e6          2092.0  86970   20220908  2097.0  2073.0  2087.0  2.9351e9       1.4061e6
 1390 │ 2096.0                        1.0  2100.0          2067.0         2073.0          1.7931e6          2096.0  86970   20220909  2100.0  2067.0  2073.0  3.73586e9      1.7931e6
                                                                                                                                                                     1347 rows omitted

julia> getdailyquotes(date="2022-09-09")
4194×14 DataFrame
  Row │ AdjustmentClose  AdjustmentFactor  AdjustmentHigh  AdjustmentLow  AdjustmentOpen  AdjustmentVolume  Close    Code    Date      High     Low      Open     TurnoverValue  Volume
      │ Union…           Float64           Union…          Union…         Union…          Union…            Union…   String  String    Union…   Union…   Union…   Union…         Union…
──────┼────────────────────────────────────────────────────────────────────────────────────────────────────────────────────────────────────────────────────────────────────────────────────
    1 │ 3650.0                        1.0  3665.0          3600.0         3600.0          17700.0           3650.0   13010   20220909  3665.0   3600.0   3600.0   6.41995e7      17700.0
    2 │ 2049.0                        1.0  2053.0          2041.0         2047.5          144580.0          2049.0   13050   20220909  2053.0   2041.0   2047.5   2.95961e8      144580.0
    3 │ 2029.0                        1.0  2032.0          2019.0         2023.0          1.56714e6         2029.0   13060   20220909  2032.0   2019.0   2023.0   3.17597e9      1.56714e6
    4 │ 2003.0                        1.0  2008.0          1997.0         1999.5          268200.0          2003.0   13080   20220909  2008.0   1997.0   1999.5   5.36422e8      268200.0
    5 │ 43000.0                       1.0  43300.0         42340.0        43100.0         135.0             43000.0  13090   20220909  43300.0  42340.0  43100.0  5.79351e6      135.0
    6 │ 937.4                         1.0  943.3           937.0          939.9           4590.0            937.4    13110   20220909  943.3    937.0    939.9    4.31443e6      4590.0
    7 │ 20065.0                       1.0  20065.0         20065.0        20065.0         4.0               20065.0  13120   20220909  20065.0  20065.0  20065.0  80260.0        4.0
    8 │ 3251.0                        1.0  3252.0          3251.0         3252.0          90.0              3251.0   13130   20220909  3252.0   3251.0   3252.0   292610.0       90.0
    9 │ 356.9                         1.0  356.9           356.9          356.9           1000.0            356.9    13190   20220909  356.9    356.9    356.9    356900.0       1000.0
   10 │ 28845.0                       1.0  28895.0         28700.0        28820.0         38225.0           28845.0  13200   20220909  28895.0  28700.0  28820.0  1.10184e9      38225.0
   11 │ 28930.0                       1.0  28995.0         28790.0        28920.0         223706.0          28930.0  13210   20220909  28995.0  28790.0  28920.0  6.46669e9      223706.0
   12 │ 8315.0                        1.0  8315.0          8223.0         8250.0          1060.0            8315.0   13220   20220909  8315.0   8223.0   8250.0   8.75058e6      1060.0
   13 │                               1.0                                                                            13240   20220909
   14 │ 201.0                         1.0  201.1           200.0          200.0           5500.0            201.0    13250   20220909  201.1    200.0    200.0    1.10263e6      5500.0
   15 │ 22890.0                       1.0  22985.0         22850.0        22940.0         10578.0           22890.0  13260   20220909  22985.0  22850.0  22940.0  2.42452e8      10578.0
   16 │ 6141.0                        1.0  6167.0          6132.0         6151.0          5810.0            6141.0   13280   20220909  6167.0   6132.0   6151.0   3.57613e7      5810.0
   17 │ 29095.0                       1.0  29150.0         28950.0        29090.0         10860.0           29095.0  13290   20220909  29150.0  28950.0  29090.0  3.15749e8      10860.0
   18 │ 28965.0                       1.0  29020.0         28825.0        28935.0         34170.0           28965.0  13300   20220909  29020.0  28825.0  28935.0  9.88916e8      34170.0
   19 │ 552.0                         1.0  554.0           546.0          547.0           1.5187e6          552.0    13320   20220909  554.0    546.0    547.0    8.3395e8       1.5187e6
   20 │ 2453.0                        1.0  2463.0          2419.0         2440.0          467000.0          2453.0   13330   20220909  2463.0   2419.0   2440.0   1.14064e9      467000.0
   21 │ 2180.5                        1.0  2184.0          2165.5         2165.5          183180.0          2180.5   13430   20220909  2184.0   2165.5   2165.5   3.99248e8      183180.0
   22 │ 2047.0                        1.0  2048.5          2037.0         2037.5          8100.0            2047.0   13450   20220909  2048.5   2037.0   2037.5   1.65685e7      8100.0
  ⋮   │        ⋮                ⋮                ⋮               ⋮              ⋮                ⋮             ⋮       ⋮        ⋮         ⋮        ⋮        ⋮           ⋮            ⋮
 4174 │ 325.0                         1.0  330.0           324.0          324.0           73100.0           325.0    99720   20220909  330.0    324.0    324.0    2.38981e7      73100.0
 4175 │ 27.0                          1.0  28.0            27.0           27.0            788700.0          27.0     99730   20220909  28.0     27.0     27.0     2.13666e7      788700.0
 4176 │ 5450.0                        1.0  5480.0          5390.0         5390.0          14400.0           5450.0   99740   20220909  5480.0   5390.0   5390.0   7.8115e7       14400.0
 4177 │                               1.0                                                                            99760   20220909
 4178 │ 2653.0                        1.0  2665.0          2653.0         2654.0          500.0             2653.0   99770   20220909  2665.0   2653.0   2654.0   1.3291e6       500.0
 4179 │ 46.0                          1.0  48.0            46.0           47.0            379800.0          46.0     99780   20220909  48.0     46.0     47.0     1.75814e7      379800.0
 4180 │ 1109.0                        1.0  1127.0          1109.0         1109.0          27700.0           1109.0   99790   20220909  1127.0   1109.0   1109.0   3.09e7         27700.0
 4181 │ 109.0                         1.0  110.0           109.0          110.0           55000.0           109.0    99800   20220909  110.0    109.0    110.0    6.0189e6       55000.0
 4182 │ 774.0                         1.0  775.0           750.0          750.0           37000.0           774.0    99820   20220909  775.0    750.0    750.0    2.81852e7      37000.0
 4183 │ 83280.0                       1.0  84680.0         83280.0        84610.0         784700.0          83280.0  99830   20220909  84680.0  83280.0  84610.0  6.59618e10     784700.0
 4184 │ 5500.0                        1.0  5535.0          5428.0         5510.0          1.361e7           5500.0   99840   20220909  5535.0   5428.0   5510.0   7.46429e10     1.361e7
 4185 │ 1799.0                        1.0  1820.0          1797.0         1797.0          6200.0            1799.0   99860   20220909  1820.0   1797.0   1797.0   1.11685e7      6200.0
 4186 │ 3300.0                        1.0  3320.0          3280.0         3280.0          182500.0          3300.0   99870   20220909  3320.0   3280.0   3280.0   6.01202e8      182500.0
 4187 │ 3430.0                        1.0  3450.0          3415.0         3435.0          266300.0          3430.0   99890   20220909  3450.0   3415.0   3435.0   9.14459e8      266300.0
 4188 │ 640.0                         1.0  662.0           640.0          659.0           65600.0           640.0    99900   20220909  662.0    640.0    659.0    4.26735e7      65600.0
 4189 │ 815.0                         1.0  815.0           809.0          811.0           23700.0           815.0    99910   20220909  815.0    809.0    811.0    1.92387e7      23700.0
 4190 │ 1303.0                        1.0  1304.0          1300.0         1300.0          9200.0            1303.0   99930   20220909  1304.0   1300.0   1300.0   1.19678e7      9200.0
 4191 │ 2583.0                        1.0  2583.0          2568.0         2568.0          4700.0            2583.0   99940   20220909  2583.0   2568.0   2568.0   1.20815e7      4700.0
 4192 │ 430.0                         1.0  434.0           428.0          429.0           78100.0           430.0    99950   20220909  434.0    428.0    429.0    3.36048e7      78100.0
 4193 │ 1210.0                        1.0  1210.0          1201.0         1201.0          700.0             1210.0   99960   20220909  1210.0   1201.0   1201.0   843500.0       700.0
 4194 │ 729.0                         1.0  732.0           725.0          727.0           280400.0          729.0    99970   20220909  732.0    725.0    727.0    2.0404e8       280400.0
                                                                                                                                                                          4151 rows omitted
…
